G04 #@! TF.GenerationSoftware,KiCad,Pcbnew,no-vcs-found-4bdac4d~58~ubuntu17.04.1*
G04 #@! TF.CreationDate,2017-06-24T09:10:46+02:00*
G04 #@! TF.ProjectId,rfcontroller,7266636F6E74726F6C6C65722E6B6963,rev?*
G04 #@! TF.SameCoordinates,Original
G04 #@! TF.FileFunction,Soldermask,Bot*
G04 #@! TF.FilePolarity,Negative*
%FSLAX46Y46*%
G04 Gerber Fmt 4.6, Leading zero omitted, Abs format (unit mm)*
G04 Created by KiCad (PCBNEW no-vcs-found-4bdac4d~58~ubuntu17.04.1) date Sat Jun 24 09:10:46 2017*
%MOMM*%
%LPD*%
G01*
G04 APERTURE LIST*
%ADD10C,0.100000*%
%ADD11O,1.727200X1.727200*%
%ADD12R,1.727200X1.727200*%
%ADD13C,4.064000*%
%ADD14R,2.032000X1.727200*%
%ADD15O,2.032000X1.727200*%
%ADD16R,1.727200X2.032000*%
%ADD17O,1.727200X2.032000*%
%ADD18C,2.500000*%
%ADD19R,2.500000X2.500000*%
G04 APERTURE END LIST*
D10*
D11*
X44790765Y-102054162D03*
X47330765Y-102054162D03*
X44790765Y-104594162D03*
X47330765Y-104594162D03*
X44790765Y-107134162D03*
X47330765Y-107134162D03*
X44790765Y-109674162D03*
D12*
X47330765Y-109674162D03*
D13*
X86700765Y-103895662D03*
X81303265Y-86179162D03*
D14*
X40155265Y-102028762D03*
D15*
X40155265Y-104568762D03*
X40155265Y-107108762D03*
X40155265Y-109648762D03*
X40155265Y-112188762D03*
D13*
X33551265Y-99958662D03*
X53172765Y-120723162D03*
X33678265Y-120723162D03*
D16*
X87687969Y-97671637D03*
D17*
X85147969Y-97671637D03*
X82607969Y-97671637D03*
X80067969Y-97671637D03*
X77527969Y-97671637D03*
X74987969Y-97671637D03*
X72447969Y-97671637D03*
X69907969Y-97671637D03*
X67367969Y-97671637D03*
X64827969Y-97671637D03*
X62287969Y-97671637D03*
X59747969Y-97671637D03*
X57207969Y-97671637D03*
X54667969Y-97671637D03*
X52127969Y-97671637D03*
D12*
X44854265Y-122564662D03*
D11*
X47394265Y-122564662D03*
X44854265Y-120024662D03*
X47394265Y-120024662D03*
X44854265Y-117484662D03*
X47394265Y-117484662D03*
X44854265Y-114944662D03*
X47394265Y-114944662D03*
D18*
X86637265Y-120024662D03*
D19*
X81637265Y-120024662D03*
D16*
X43364969Y-82431637D03*
D17*
X45904969Y-82431637D03*
X48444969Y-82431637D03*
X52127969Y-82431637D03*
X54667969Y-82431637D03*
X57207969Y-82431637D03*
X59747969Y-82431637D03*
X62287969Y-82431637D03*
X64827969Y-82431637D03*
X67367969Y-82431637D03*
X69907969Y-82431637D03*
X72447969Y-82431637D03*
X74987969Y-82431637D03*
X77527969Y-82431637D03*
X80067969Y-82431637D03*
X82607969Y-82431637D03*
X85147969Y-82431637D03*
D16*
X87687969Y-82431637D03*
D14*
X32823969Y-85733637D03*
D15*
X32823969Y-88273637D03*
X32823969Y-90813637D03*
X32823969Y-93353637D03*
D18*
X64983765Y-120088162D03*
D19*
X59983765Y-120088162D03*
X70905765Y-120024662D03*
D18*
X75905765Y-120024662D03*
D14*
X74860969Y-84844637D03*
D15*
X74860969Y-87384637D03*
X74860969Y-89924637D03*
X74860969Y-92464637D03*
X74860969Y-95004637D03*
M02*
